Analys av domäner på #svpol - Snabbtänkt valet 2018
…
# Get bigrams from tweets.
bigrams <- df %>% 
  unnest_tokens(bigram, text, token = "ngrams", n = 2, collapse = FALSE) 
    
# Separate bigrams into two columns.
bigrams_separated <- bigrams %>%
  separate(bigram, c("word1", "word2"), sep = " ")

# Sort bigrams.
bigrams_sorted <- bigrams %>% 
  count(bigram, sort=TRUE)

bigrams_sorted %>% head(50)

## # A tibble: 50 x 2
##    bigram               n
##    <chr>            <int>
##  1 https t.co      269172
##  2 svpol https     100985
##  3 svpol migpol     28577
##  4 svpol val2018    26080
##  5 val2018 https    17102
##  6 rt katjanouch    14398
##  7 rt mickek69      13294
##  8 migpol https     11947
##  9 rt samhallsnytt  11372
## 10 är det            9906
## # ... with 40 more rows
…
